Chapter 9 Balanced and well-spread sampling | Spatial sampling with R
…
In the next code chunk, the inclusion probabilities are computed by \(\pi_{hk}=n_h/N_h,\; k=1, \dots , N_h\), with \(n_h=5\) for all four strata. The stratum sample sizes are equal, but the number of population units of a stratum differ among the strata, so the inclusion probabilities also differ among the strata. The ten leftmost units on the bottom row of Figure 9.6 are shown below.

mypop <- mypop %>%
    group_by(stratum) %>%
    summarise(N_h = n(), .groups = "drop") %>%
    mutate(pi_h = rep(5, 4) / N_h) %>%
    right_join(mypop, by = "stratum") %>%
    arrange(s2, s1)
mypop

# A tibble: 400 x 5
   stratum   N_h   pi_h    s1    s2
   <fct>   <int>  <dbl> <dbl> <dbl>
 1 A          80 0.0625   0.5   0.5
 2 A          80 0.0625   1.5   0.5
 3 A          80 0.0625   2.5   0.5
 4 A          80 0.0625   3.5   0.5
 5 B          40 0.125    4.5   0.5
 6 B          40 0.125    5.5   0.5
 7 C         160 0.0312   6.5   0.5
 8 C         160 0.0312   7.5   0.5
 9 C         160 0.0312   8.5   0.5
10 C         160 0.0312   9.5   0.5
# ... with 390 more rows
…
