Chapter 8 Sampling with probabilities proportional to size | Spatial sampling with R
…
In Chapters 6 and 7 pps sampling was already used to select clusters (primary sampling units) of population units. In this chapter the individual population units (elementary sampling units) are selected with probabilities proportional to size.

If we have a GIS map of land use categories such as agriculture, built-up areas, water bodies, forests, etc., we may use this file to further adapt the selection probabilities. The crop will be grown in agricultural areas only, so we expect small crop areas in cells largely covered by non-agricultural land. As a size measure in computing the selection probabilities, we may use the agricultural area, as represented in the GIS map, in the country under study within the cells. Note that size now has a different meaning. It does not refer to the area of the sampling units anymore, but to an ancillary variable that we expect to be related to the study variable, i.e., the crop area. When the crop area per cell is proportional to the agricultural area per cell, then the precision of the estimated total area of the crop can be increased by selecting the cells with probabilities proportional to the agricultural area.

In this example the sampling units have an area. However, sampling with probabilities proportional to size is not restricted to areal sampling units, but can also be used for selecting points. If we have a map of an ancillary variable that is expected to be positively related to the study variable, this ancillary variable can be used as a size measure. For instance, in areas where soil organic matter shows a positive relation with elevation, it can be efficient to select sampling points with a selection probability proportional to this environmental variable. The ancillary variable must be strictly positive for all points.

Sampling units can be selected with probabilities proportional to their size (pps) with or without replacement. This distinction is immaterial for infinite populations, as in sampling points from an area. pps sampling with replacement (ppswr) is much easier to implement than pps sampling without replacement (ppswor). The problem with ppswor is that after each draw the selected unit is removed from the sampling frame, so that the sum of the size variable over all remaining units changes and as a result the draw-by-draw selection probabilities of the units.

pps sampling is illustrated with the simulated map of poppy area per 5 km square in the province of Kandahar (Figure 1.6). The first six rows of the data frame are shown below. Variable poppy is the study variable, variable agri is the agricultural area within the 5 km squares, used as a size variable.

grdKandahar

# A tibble: 965 x 4
        s1       s2    poppy   agri
     <dbl>    <dbl>    <dbl>  <dbl>
 1 809232. 3407627.  0.905    65.7 
 2 814232. 3412627.  0.00453  15.6 
 3 794232. 3417627. 11.3      17.6 
 4 809232. 3417627.  0.110    14.0 
 5 814232. 3417627.  0.0344   22.2 
 6 819232. 3417627.  0.143    13.3 
 7 794232. 3422627.  3.66     34.1 
 8 799232. 3422627.  3.66      6.12
 9 809232. 3422627.  0.688    10.6 
10 814232. 3422627.  4.79    130.  
# ... with 955 more rows
…
