Chapter 3 Simple random sampling | Spatial sampling with R
…
 [1]  21   7   5  16  58  76  44 100  71  84

The number of units in the sample is referred to as the sample size (\(n = 10\) in the code chunk above). Use argument replace = TRUE to select a simple random sample with replacement.

When the spatial population is continuous and infinite, as in sampling points from an area, the infinite population is discretised by a very fine grid. Discretisation is not strictly needed (we could also select points directly), but it is used in this book for reasons explained in Chapter 1. The centres of the grid cells are then listed in a data frame, which serves as the sampling frame (Chapter 1). In the next code chunk, a simple random sample without replacement of size 40 is selected from Voorst. The infinite population is represented by the centres of square grid cells with a side length of 25 m. These centres are listed in tibble1 grdVoorst.

n <- 40
N <- nrow(grdVoorst)
set.seed(314)
units <- sample(N, size = n, replace = FALSE)
mysample <- grdVoorst[units, ]
mysample

# A tibble: 40 x 4
       s1      s2     z stratum
    <dbl>   <dbl> <dbl> <chr>  
 1 206992 464506.  23.5 EA     
 2 202567 464606. 321.  XF     
 3 205092 464530. 124.  XF     
 4 203367 464556.  53.6 EA     
 5 205592 465180.  38.4 PA     
 6 201842 464956. 159.  XF     
 7 201667 464930. 139.  XF     
 8 204317 465306.  59.4 PA     
 9 203042 464406.  90.5 BA     
10 204567 464530.  48.1 PA     
# ... with 30 more rows
…
set.seed(314)
units <- sample(N, size = n, replace = TRUE)
mysample <- grdVoorst[units, ]
cellsize <- 25
mysample$s1 <- jitter(mysample$s1, amount = cellsize / 2)
mysample$s2 <- jitter(mysample$s2, amount = cellsize / 2)
mysample

# A tibble: 40 x 4
        s1      s2     z stratum
     <dbl>   <dbl> <dbl> <chr>  
 1 206986. 464493.  23.5 EA     
 2 202574. 464609. 321.  XF     
 3 205095. 464527. 124.  XF     
 4 203369. 464556.  53.6 EA     
 5 205598. 465181.  38.4 PA     
 6 201836. 464965. 159.  XF     
 7 201665. 464941. 139.  XF     
 8 204319. 465310.  59.4 PA     
 9 203052. 464402.  90.5 BA     
10 204564. 464529.  48.1 PA     
# ... with 30 more rows
…
